<?xml version="1.0" encoding="UTF-8" standalone="no"?>
<!-- Created with Inkscape (http://www.inkscape.org/) -->

<svg
   xmlns:dc="http://purl.org/dc/elements/1.1/"
   xmlns:cc="http://creativecommons.org/ns#"
   xmlns:rdf="http://www.w3.org/1999/02/22-rdf-syntax-ns#"
   xmlns:svg="http://www.w3.org/2000/svg"
   xmlns="http://www.w3.org/2000/svg"
   xmlns:sodipodi="http://sodipodi.sourceforge.net/DTD/sodipodi-0.dtd"
   xmlns:inkscape="http://www.inkscape.org/namespaces/inkscape"
   width="123.49674mm"
   height="55.556908mm"
   viewBox="0 0 437.58688 196.85518"
   id="svg2"
   version="1.1"
   inkscape:version="0.91 r13725"
   sodipodi:docname="analyse-replicable-2.svg">
  <defs
     id="defs4" />
  <sodipodi:namedview
     id="base"
     pagecolor="#ffffff"
     bordercolor="#666666"
     borderopacity="1.0"
     inkscape:pageopacity="0.0"
     inkscape:pageshadow="2"
     inkscape:zoom="1.01"
     inkscape:cx="207.88971"
     inkscape:cy="-2.1560943"
     inkscape:document-units="px"
     inkscape:current-layer="layer1"
     showgrid="false"
     inkscape:window-width="1641"
     inkscape:window-height="1005"
     inkscape:window-x="39"
     inkscape:window-y="1"
     inkscape:window-maximized="1"
     fit-margin-top="5"
     fit-margin-left="5"
     fit-margin-right="5"
     fit-margin-bottom="5" />
  <metadata
     id="metadata7">
    <rdf:RDF>
      <cc:Work
         rdf:about="">
        <dc:format>image/svg+xml</dc:format>
        <dc:type
           rdf:resource="http://purl.org/dc/dcmitype/StillImage" />
        <dc:title></dc:title>
      </cc:Work>
    </rdf:RDF>
  </metadata>
  <g
     inkscape:label="Layer 1"
     inkscape:groupmode="layer"
     id="layer1"
     transform="translate(-46.816317,-70.398035)">
    <g
       id="g4223">
      <rect
         style="opacity:1;fill:#d2e8f2;fill-opacity:1;stroke:#000000;stroke-width:0.86630201;stroke-linejoin:round;stroke-miterlimit:4;stroke-dasharray:none;stroke-dashoffset:0;stroke-opacity:1"
         id="rect4154"
         width="181.28751"
         height="60.555801"
         x="64.966003"
         y="88.547722" />
      <text
         sodipodi:linespacing="100%"
         id="text4138"
         y="128.5307"
         x="123.28798"
         style="font-style:normal;font-variant:normal;font-weight:normal;font-stretch:normal;font-size:30px;line-height:100%;font-family:Helvetica;-inkscape-font-specification:'Helvetica, Normal';text-align:start;letter-spacing:0px;word-spacing:0px;writing-mode:lr-tb;text-anchor:start;fill:#000000;fill-opacity:1;stroke:none;stroke-width:1px;stroke-linecap:butt;stroke-linejoin:miter;stroke-opacity:1"
         xml:space="preserve"><tspan
           y="128.5307"
           x="123.28798"
           id="tspan4140"
           sodipodi:role="line">code</tspan></text>
    </g>
    <g
       id="g4184">
      <rect
         y="188.54773"
         x="64.966003"
         height="60.555801"
         width="181.28751"
         id="rect4156"
         style="opacity:1;fill:#edb2b2;fill-opacity:1;stroke:#000000;stroke-width:0.86630201;stroke-linejoin:round;stroke-miterlimit:4;stroke-dasharray:none;stroke-dashoffset:0;stroke-opacity:1" />
      <text
         xml:space="preserve"
         style="font-style:normal;font-variant:normal;font-weight:normal;font-stretch:normal;font-size:30px;line-height:100%;font-family:Helvetica;-inkscape-font-specification:'Helvetica, Normal';text-align:start;letter-spacing:0px;word-spacing:0px;writing-mode:lr-tb;text-anchor:start;fill:#000000;fill-opacity:1;stroke:none;stroke-width:1px;stroke-linecap:butt;stroke-linejoin:miter;stroke-opacity:1"
         x="98.34169"
         y="229.52631"
         id="text4142"
         sodipodi:linespacing="100%"><tspan
           sodipodi:role="line"
           id="tspan4144"
           x="98.34169"
           y="229.52631">résultats</tspan></text>
    </g>
    <g
       id="g4194">
      <rect
         style="opacity:1;fill:#bcf7bc;fill-opacity:1;stroke:#000000;stroke-width:0.86630201;stroke-linejoin:round;stroke-miterlimit:4;stroke-dasharray:none;stroke-dashoffset:0;stroke-opacity:1"
         id="rect4158"
         width="181.28751"
         height="60.555801"
         x="284.966"
         y="188.54773" />
      <text
         sodipodi:linespacing="100%"
         id="text4150"
         y="229.32123"
         x="306.02234"
         style="font-style:normal;font-variant:normal;font-weight:normal;font-stretch:normal;font-size:30px;line-height:100%;font-family:Helvetica;-inkscape-font-specification:'Helvetica, Normal';text-align:start;letter-spacing:0px;word-spacing:0px;writing-mode:lr-tb;text-anchor:start;fill:#000000;fill-opacity:1;stroke:none;stroke-width:1px;stroke-linecap:butt;stroke-linejoin:miter;stroke-opacity:1"
         xml:space="preserve"><tspan
           y="229.32123"
           x="306.02234"
           id="tspan4152"
           sodipodi:role="line">discussion</tspan></text>
    </g>
  </g>
</svg>
