<?xml version="1.0" encoding="UTF-8" standalone="no"?>
<!-- Created with Inkscape (http://www.inkscape.org/) -->

<svg
   xmlns:dc="http://purl.org/dc/elements/1.1/"
   xmlns:cc="http://creativecommons.org/ns#"
   xmlns:rdf="http://www.w3.org/1999/02/22-rdf-syntax-ns#"
   xmlns:svg="http://www.w3.org/2000/svg"
   xmlns="http://www.w3.org/2000/svg"
   xmlns:sodipodi="http://sodipodi.sourceforge.net/DTD/sodipodi-0.dtd"
   xmlns:inkscape="http://www.inkscape.org/namespaces/inkscape"
   width="199.75809mm"
   height="56.37635mm"
   viewBox="0 0 199.75809 56.37635"
   version="1.1"
   id="svg3797"
   inkscape:version="0.91 r13725"
   sodipodi:docname="random-numbers-4.svg">
  <defs
     id="defs3791">
    <marker
       inkscape:isstock="true"
       style="overflow:visible"
       id="marker6467"
       refX="0"
       refY="0"
       orient="auto"
       inkscape:stockid="Arrow2Mend">
      <path
         transform="scale(-0.6)"
         d="M 8.7185878,4.0337352 -2.2072895,0.01601326 8.7185884,-4.0017078 c -1.7454984,2.3720609 -1.7354408,5.6174519 -6e-7,8.035443 z"
         style="fill:#000000;fill-opacity:1;fill-rule:evenodd;stroke:#000000;stroke-width:0.625;stroke-linejoin:round;stroke-opacity:1"
         id="path6465"
         inkscape:connector-curvature="0" />
    </marker>
    <marker
       inkscape:stockid="Arrow2Mend"
       orient="auto"
       refY="0"
       refX="0"
       id="marker6319"
       style="overflow:visible"
       inkscape:isstock="true"
       inkscape:collect="always">
      <path
         id="path6317"
         style="fill:#000000;fill-opacity:1;fill-rule:evenodd;stroke:#000000;stroke-width:0.625;stroke-linejoin:round;stroke-opacity:1"
         d="M 8.7185878,4.0337352 -2.2072895,0.01601326 8.7185884,-4.0017078 c -1.7454984,2.3720609 -1.7354408,5.6174519 -6e-7,8.035443 z"
         transform="scale(-0.6)"
         inkscape:connector-curvature="0" />
    </marker>
    <marker
       inkscape:isstock="true"
       style="overflow:visible"
       id="marker5550"
       refX="0"
       refY="0"
       orient="auto"
       inkscape:stockid="Arrow2Mend"
       inkscape:collect="always">
      <path
         transform="scale(-0.6)"
         d="M 8.7185878,4.0337352 -2.2072895,0.01601326 8.7185884,-4.0017078 c -1.7454984,2.3720609 -1.7354408,5.6174519 -6e-7,8.035443 z"
         style="fill:#000000;fill-opacity:1;fill-rule:evenodd;stroke:#000000;stroke-width:0.625;stroke-linejoin:round;stroke-opacity:1"
         id="path5548"
         inkscape:connector-curvature="0" />
    </marker>
    <marker
       inkscape:stockid="Arrow2Mend"
       orient="auto"
       refY="0"
       refX="0"
       id="marker5388"
       style="overflow:visible"
       inkscape:isstock="true">
      <path
         id="path5386"
         style="fill:#000000;fill-opacity:1;fill-rule:evenodd;stroke:#000000;stroke-width:0.625;stroke-linejoin:round;stroke-opacity:1"
         d="M 8.7185878,4.0337352 -2.2072895,0.01601326 8.7185884,-4.0017078 c -1.7454984,2.3720609 -1.7354408,5.6174519 -6e-7,8.035443 z"
         transform="scale(-0.6)"
         inkscape:connector-curvature="0" />
    </marker>
    <marker
       inkscape:isstock="true"
       style="overflow:visible"
       id="marker5262"
       refX="0"
       refY="0"
       orient="auto"
       inkscape:stockid="Arrow2Mend"
       inkscape:collect="always">
      <path
         transform="scale(-0.6)"
         d="M 8.7185878,4.0337352 -2.2072895,0.01601326 8.7185884,-4.0017078 c -1.7454984,2.3720609 -1.7354408,5.6174519 -6e-7,8.035443 z"
         style="fill:#000000;fill-opacity:1;fill-rule:evenodd;stroke:#000000;stroke-width:0.625;stroke-linejoin:round;stroke-opacity:1"
         id="path5260"
         inkscape:connector-curvature="0" />
    </marker>
    <marker
       inkscape:stockid="Arrow2Mend"
       orient="auto"
       refY="0"
       refX="0"
       id="marker5196"
       style="overflow:visible"
       inkscape:isstock="true"
       inkscape:collect="always">
      <path
         id="path5194"
         style="fill:#000000;fill-opacity:1;fill-rule:evenodd;stroke:#000000;stroke-width:0.625;stroke-linejoin:round;stroke-opacity:1"
         d="M 8.7185878,4.0337352 -2.2072895,0.01601326 8.7185884,-4.0017078 c -1.7454984,2.3720609 -1.7354408,5.6174519 -6e-7,8.035443 z"
         transform="scale(-0.6)"
         inkscape:connector-curvature="0" />
    </marker>
    <marker
       inkscape:stockid="Arrow2Send"
       orient="auto"
       refY="0"
       refX="0"
       id="Arrow2Send"
       style="overflow:visible"
       inkscape:isstock="true">
      <path
         id="path4771"
         style="fill:#000000;fill-opacity:1;fill-rule:evenodd;stroke:#000000;stroke-width:0.625;stroke-linejoin:round;stroke-opacity:1"
         d="M 8.7185878,4.0337352 -2.2072895,0.01601326 8.7185884,-4.0017078 c -1.7454984,2.3720609 -1.7354408,5.6174519 -6e-7,8.035443 z"
         transform="matrix(-0.3,0,0,-0.3,0.69,0)"
         inkscape:connector-curvature="0" />
    </marker>
    <marker
       inkscape:stockid="Arrow2Mend"
       orient="auto"
       refY="0"
       refX="0"
       id="Arrow2Mend"
       style="overflow:visible"
       inkscape:isstock="true">
      <path
         id="path4765"
         style="fill:#000000;fill-opacity:1;fill-rule:evenodd;stroke:#000000;stroke-width:0.625;stroke-linejoin:round;stroke-opacity:1"
         d="M 8.7185878,4.0337352 -2.2072895,0.01601326 8.7185884,-4.0017078 c -1.7454984,2.3720609 -1.7354408,5.6174519 -6e-7,8.035443 z"
         transform="scale(-0.6)"
         inkscape:connector-curvature="0" />
    </marker>
    <marker
       inkscape:stockid="Arrow1Mend"
       orient="auto"
       refY="0"
       refX="0"
       id="Arrow1Mend"
       style="overflow:visible"
       inkscape:isstock="true">
      <path
         id="path4747"
         d="M 0,0 5,-5 -12.5,0 5,5 Z"
         style="fill:#000000;fill-opacity:1;fill-rule:evenodd;stroke:#000000;stroke-width:1.00000003pt;stroke-opacity:1"
         transform="matrix(-0.4,0,0,-0.4,-4,0)"
         inkscape:connector-curvature="0" />
    </marker>
    <marker
       inkscape:stockid="Arrow2Lend"
       orient="auto"
       refY="0"
       refX="0"
       id="Arrow2Lend"
       style="overflow:visible"
       inkscape:isstock="true">
      <path
         id="path4759"
         style="fill:#000000;fill-opacity:1;fill-rule:evenodd;stroke:#000000;stroke-width:0.625;stroke-linejoin:round;stroke-opacity:1"
         d="M 8.7185878,4.0337352 -2.2072895,0.01601326 8.7185884,-4.0017078 c -1.7454984,2.3720609 -1.7354408,5.6174519 -6e-7,8.035443 z"
         transform="matrix(-1.1,0,0,-1.1,-1.1,0)"
         inkscape:connector-curvature="0" />
    </marker>
  </defs>
  <sodipodi:namedview
     id="base"
     pagecolor="#ffffff"
     bordercolor="#666666"
     borderopacity="1.0"
     inkscape:pageopacity="0.0"
     inkscape:pageshadow="2"
     inkscape:zoom="0.94"
     inkscape:cx="329.57142"
     inkscape:cy="36.537983"
     inkscape:document-units="mm"
     inkscape:current-layer="g4184"
     showgrid="false"
     inkscape:window-width="1641"
     inkscape:window-height="1005"
     inkscape:window-x="39"
     inkscape:window-y="1"
     inkscape:window-maximized="1"
     fit-margin-top="1"
     fit-margin-left="1"
     fit-margin-bottom="1"
     fit-margin-right="1" />
  <metadata
     id="metadata3794">
    <rdf:RDF>
      <cc:Work
         rdf:about="">
        <dc:format>image/svg+xml</dc:format>
        <dc:type
           rdf:resource="http://purl.org/dc/dcmitype/StillImage" />
        <dc:title />
      </cc:Work>
    </rdf:RDF>
  </metadata>
  <g
     inkscape:label="Layer 1"
     inkscape:groupmode="layer"
     id="layer1"
     transform="translate(-9.4595477,-34.571133)">
    <g
       transform="matrix(0.28222223,0,0,0.28222223,7.592776,-17.518982)"
       id="g4184">
      <g
         id="g3855"
         transform="translate(-54.374999)">
        <g
           id="g4245">
          <rect
             y="188.46979"
             x="64.888062"
             height="60.711681"
             width="121.60297"
             id="rect4156"
             style="opacity:1;fill:#edb2b2;fill-opacity:1;stroke:#000000;stroke-width:0.71042091;stroke-linejoin:round;stroke-miterlimit:4;stroke-dasharray:none;stroke-dashoffset:0;stroke-opacity:1" />
          <text
             sodipodi:linespacing="0%"
             xml:space="preserve"
             style="font-style:normal;font-variant:normal;font-weight:normal;font-stretch:normal;line-height:0%;font-family:Helvetica;-inkscape-font-specification:'Helvetica, Normal';text-align:start;letter-spacing:0px;word-spacing:0px;writing-mode:lr-tb;text-anchor:start;fill:#000000;fill-opacity:1;stroke:none;stroke-width:1px;stroke-linecap:butt;stroke-linejoin:miter;stroke-opacity:1"
             x="93.616791"
             y="230.61029"
             id="text4142"><tspan
               sodipodi:role="line"
               id="tspan4144"
               x="93.616791"
               y="230.61029"
               style="font-size:30px;line-height:1">seed</tspan></text>
        </g>
      </g>
      <g
         id="g3860"
         transform="translate(-23.750037)">
        <rect
           y="188.46979"
           x="220.51308"
           height="60.711681"
           width="121.60297"
           id="rect3816"
           style="opacity:1;fill:#edb2b2;fill-opacity:1;stroke:#000000;stroke-width:0.71042091;stroke-linejoin:round;stroke-miterlimit:4;stroke-dasharray:none;stroke-dashoffset:0;stroke-opacity:1" />
        <text
           xml:space="preserve"
           style="font-style:normal;font-variant:normal;font-weight:normal;font-stretch:normal;line-height:0%;font-family:Helvetica;-inkscape-font-specification:'Helvetica, Normal';text-align:start;letter-spacing:0px;word-spacing:0px;writing-mode:lr-tb;text-anchor:start;fill:#000000;fill-opacity:1;stroke:none;stroke-width:1px;stroke-linecap:butt;stroke-linejoin:miter;stroke-opacity:1"
           x="236.95909"
           y="230.61029"
           id="text3820"
           sodipodi:linespacing="0%"><tspan
             sodipodi:role="line"
             id="tspan3818"
             x="236.95909"
             y="230.61029"
             style="font-size:30px;line-height:1">state 1</tspan></text>
      </g>
      <g
         id="g3865"
         transform="translate(6.8750093)">
        <rect
           style="opacity:1;fill:#edb2b2;fill-opacity:1;stroke:#000000;stroke-width:0.71042091;stroke-linejoin:round;stroke-miterlimit:4;stroke-dasharray:none;stroke-dashoffset:0;stroke-opacity:1"
           id="rect3824"
           width="121.60297"
           height="60.711681"
           x="376.13806"
           y="188.46979" />
        <text
           id="text3828"
           y="230.61029"
           x="392.58408"
           style="font-style:normal;font-variant:normal;font-weight:normal;font-stretch:normal;line-height:0%;font-family:Helvetica;-inkscape-font-specification:'Helvetica, Normal';text-align:start;letter-spacing:0px;word-spacing:0px;writing-mode:lr-tb;text-anchor:start;fill:#000000;fill-opacity:1;stroke:none;stroke-width:1px;stroke-linecap:butt;stroke-linejoin:miter;stroke-opacity:1"
           xml:space="preserve"
           sodipodi:linespacing="0%"><tspan
             style="font-size:30px;line-height:1"
             y="230.61029"
             x="392.58408"
             id="tspan3826"
             sodipodi:role="line">state 2</tspan></text>
      </g>
      <g
         id="g3870"
         transform="translate(37.499999)">
        <rect
           y="188.46979"
           x="531.76306"
           height="60.711681"
           width="121.60297"
           id="rect3832"
           style="opacity:1;fill:#edb2b2;fill-opacity:1;stroke:#000000;stroke-width:0.71042091;stroke-linejoin:round;stroke-miterlimit:4;stroke-dasharray:none;stroke-dashoffset:0;stroke-opacity:1" />
        <text
           xml:space="preserve"
           style="font-style:normal;font-variant:normal;font-weight:normal;font-stretch:normal;line-height:0%;font-family:Helvetica;-inkscape-font-specification:'Helvetica, Normal';text-align:start;letter-spacing:0px;word-spacing:0px;writing-mode:lr-tb;text-anchor:start;fill:#000000;fill-opacity:1;stroke:none;stroke-width:1px;stroke-linecap:butt;stroke-linejoin:miter;stroke-opacity:1"
           x="548.20911"
           y="230.61029"
           id="text3836"
           sodipodi:linespacing="0%"><tspan
             sodipodi:role="line"
             id="tspan3834"
             x="548.20911"
             y="230.61029"
             style="font-size:30px;line-height:1">state 3</tspan></text>
      </g>
      <path
         style="fill:none;stroke:#000000;stroke-width:3.77362204;stroke-linecap:butt;stroke-linejoin:miter;stroke-miterlimit:4;stroke-dasharray:none;stroke-opacity:1;marker-end:url(#marker5196)"
         d="m 137.77731,218.82563 c 50.86436,0 50.86436,0 50.86436,0"
         id="path3931"
         inkscape:connector-curvature="0" />
      <path
         inkscape:connector-curvature="0"
         id="path5258"
         d="m 323.40231,218.82563 c 50.86436,0 50.86436,0 50.86436,0"
         style="fill:none;stroke:#000000;stroke-width:3.77362204;stroke-linecap:butt;stroke-linejoin:miter;stroke-miterlimit:4;stroke-dasharray:none;stroke-opacity:1;marker-end:url(#marker5262)" />
      <path
         style="fill:none;stroke:#000000;stroke-width:3.77362204;stroke-linecap:butt;stroke-linejoin:miter;stroke-miterlimit:4;stroke-dasharray:none;stroke-opacity:1;marker-end:url(#marker5388)"
         d="m 509.02731,218.82563 c 50.86436,0 50.86436,0 50.86436,0"
         id="path5384"
         inkscape:connector-curvature="0" />
      <path
         inkscape:connector-curvature="0"
         id="path5546"
         d="m 261.46264,255.77267 c 0.55356,50.86135 0.55356,50.86135 0.55356,50.86135"
         style="fill:none;stroke:#000000;stroke-width:3.77362204;stroke-linecap:butt;stroke-linejoin:miter;stroke-miterlimit:4;stroke-dasharray:none;stroke-opacity:1;marker-end:url(#marker5550)" />
      <g
         id="g4260">
        <rect
           style="opacity:1;fill:#9bc762;fill-opacity:1;stroke:#000000;stroke-width:0.80508971;stroke-linejoin:round;stroke-miterlimit:4;stroke-dasharray:none;stroke-dashoffset:0;stroke-opacity:1"
           id="rect6260"
           width="156.41521"
           height="60.617012"
           x="182.80771"
           y="319.76712" />
        <text
           sodipodi:linespacing="0%"
           id="text6264"
           y="361.86029"
           x="199.68962"
           style="font-style:normal;font-variant:normal;font-weight:normal;font-stretch:normal;line-height:0%;font-family:Helvetica;-inkscape-font-specification:'Helvetica, Normal';text-align:start;letter-spacing:0px;word-spacing:0px;writing-mode:lr-tb;text-anchor:start;fill:#000000;fill-opacity:1;stroke:none;stroke-width:1px;stroke-linecap:butt;stroke-linejoin:miter;stroke-opacity:1"
           xml:space="preserve"><tspan
             style="font-size:30px;line-height:1"
             y="361.86029"
             x="199.68962"
             id="tspan6262"
             sodipodi:role="line">number 1</tspan></text>
      </g>
      <path
         style="fill:none;stroke:#000000;stroke-width:3.77362204;stroke-linecap:butt;stroke-linejoin:miter;stroke-miterlimit:4;stroke-dasharray:none;stroke-opacity:1;marker-end:url(#marker6319)"
         d="m 447.08764,255.77267 c 0.55356,50.86135 0.55356,50.86135 0.55356,50.86135"
         id="path6305"
         inkscape:connector-curvature="0" />
      <g
         id="g4255">
        <rect
           y="319.76712"
           x="368.43271"
           height="60.617012"
           width="156.41521"
           id="rect6307"
           style="opacity:1;fill:#9bc762;fill-opacity:1;stroke:#000000;stroke-width:0.80508971;stroke-linejoin:round;stroke-miterlimit:4;stroke-dasharray:none;stroke-dashoffset:0;stroke-opacity:1" />
        <text
           sodipodi:linespacing="0%"
           xml:space="preserve"
           style="font-style:normal;font-variant:normal;font-weight:normal;font-stretch:normal;line-height:0%;font-family:Helvetica;-inkscape-font-specification:'Helvetica, Normal';text-align:start;letter-spacing:0px;word-spacing:0px;writing-mode:lr-tb;text-anchor:start;fill:#000000;fill-opacity:1;stroke:none;stroke-width:1px;stroke-linecap:butt;stroke-linejoin:miter;stroke-opacity:1"
           x="382.90497"
           y="361.86029"
           id="text6311"><tspan
             sodipodi:role="line"
             id="tspan6309"
             x="382.90497"
             y="361.86029"
             style="font-size:30px;line-height:1">number 2</tspan></text>
      </g>
      <path
         inkscape:connector-curvature="0"
         id="path6453"
         d="m 632.71264,255.77267 c 0.55356,50.86135 0.55356,50.86135 0.55356,50.86135"
         style="fill:none;stroke:#000000;stroke-width:3.77362204;stroke-linecap:butt;stroke-linejoin:miter;stroke-miterlimit:4;stroke-dasharray:none;stroke-opacity:1;marker-end:url(#marker6467)" />
      <g
         id="g4250">
        <rect
           style="opacity:1;fill:#9bc762;fill-opacity:1;stroke:#000000;stroke-width:0.80508971;stroke-linejoin:round;stroke-miterlimit:4;stroke-dasharray:none;stroke-dashoffset:0;stroke-opacity:1"
           id="rect6455"
           width="156.41521"
           height="60.617012"
           x="554.05774"
           y="319.76712" />
        <text
           sodipodi:linespacing="0%"
           id="text6459"
           y="361.86029"
           x="568.55927"
           style="font-style:normal;font-variant:normal;font-weight:normal;font-stretch:normal;line-height:0%;font-family:Helvetica;-inkscape-font-specification:'Helvetica, Normal';text-align:start;letter-spacing:0px;word-spacing:0px;writing-mode:lr-tb;text-anchor:start;fill:#000000;fill-opacity:1;stroke:none;stroke-width:1px;stroke-linecap:butt;stroke-linejoin:miter;stroke-opacity:1"
           xml:space="preserve"><tspan
             style="font-size:30px;line-height:1"
             y="361.86029"
             x="568.55927"
             id="tspan6457"
             sodipodi:role="line">number 3</tspan></text>
      </g>
    </g>
  </g>
</svg>
